<?xml version="1.0" encoding="UTF-8" standalone="no"?>
<svg
   height="300px"
   width="300px"
   fill="#000000"
   viewBox="0 0 48 48"
   x="0px"
   y="0px"
   version="1.1"
   id="svg2217"
   sodipodi:docname="community.svg"
   inkscape:version="1.1.1 (3bf5ae0d25, 2021-09-20)"
   xmlns:inkscape="http://www.inkscape.org/namespaces/inkscape"
   xmlns:sodipodi="http://sodipodi.sourceforge.net/DTD/sodipodi-0.dtd"
   xmlns="http://www.w3.org/2000/svg"
   xmlns:svg="http://www.w3.org/2000/svg">
  <defs
     id="defs2221" />
  <sodipodi:namedview
     id="namedview2219"
     pagecolor="#ffffff"
     bordercolor="#666666"
     borderopacity="1.0"
     inkscape:pageshadow="2"
     inkscape:pageopacity="0.0"
     inkscape:pagecheckerboard="0"
     showgrid="false"
     inkscape:zoom="1.4416667"
     inkscape:cx="21.849711"
     inkscape:cy="105.43353"
     inkscape:window-width="1920"
     inkscape:window-height="1059"
     inkscape:window-x="0"
     inkscape:window-y="0"
     inkscape:window-maximized="1"
     inkscape:current-layer="g2215" />
  <g
     id="g2215">
    <circle
       cx="40"
       cy="7"
       r="5"
       id="circle2197"
       style="fill:#1a347b;fill-opacity:1" />
    <path
       d="M44.64813,12.2193a6.958,6.958,0,0,1-9.25506.03747A6.342,6.342,0,0,0,34,16.21484V17a2.00229,2.00229,0,0,0,2,2h8a2.00229,2.00229,0,0,0,2-2V16A6.00776,6.00776,0,0,0,44.64813,12.2193Z"
       id="path2199"
       style="fill:#1a347b;fill-opacity:1" />
    <circle
       cx="40"
       cy="34"
       r="5"
       id="circle2201"
       style="fill:#e7d445;fill-opacity:1" />
    <path
       d="M40,41a6.96322,6.96322,0,0,1-4.60693-1.74323A6.342,6.342,0,0,0,34,43.21484V44a2.00229,2.00229,0,0,0,2,2h8a2.00229,2.00229,0,0,0,2-2V43a6.00776,6.00776,0,0,0-1.35187-3.7807A6.96335,6.96335,0,0,1,40,41Z"
       id="path2203"
       style="fill:#e7d445;fill-opacity:1" />
    <circle
       cx="8"
       cy="7"
       id="circle2205"
       r="5"
       style="fill:#c73447;fill-opacity:1" />
    <path
       d="M4,19h8a2.002,2.002,0,0,0,2-2V16a6.00862,6.00862,0,0,0-1.35187-3.78046,6.95867,6.95867,0,0,1-9.25519.03736A6.34214,6.34214,0,0,0,2,16.21484V17A2.002,2.002,0,0,0,4,19Z"
       id="path2207"
       style="fill:#c73447;fill-opacity:1" />
    <circle
       cx="8"
       cy="34"
       r="5"
       id="circle2209"
       style="fill:#041952;fill-opacity:1" />
    <path
       d="M8,41a6.96335,6.96335,0,0,1-4.60706-1.7431A6.34214,6.34214,0,0,0,2,43.21484V44a2.002,2.002,0,0,0,2,2h8a2.002,2.002,0,0,0,2-2V43a6.00862,6.00862,0,0,0-1.35187-3.78046A6.96339,6.96339,0,0,1,8,41Z"
       id="path2211"
       style="fill:#041952;fill-opacity:1" />
    <path
       d="M34,21a3.00328,3.00328,0,0,0-3-3H21a3.00328,3.00328,0,0,0-3,3v1H17a3.00328,3.00328,0,0,0-3,3v6a3.00328,3.00328,0,0,0,3,3v2a.99988.99988,0,0,0,1.6001.7998L22.3335,34H27a3.00328,3.00328,0,0,0,3-3V30h1a3.00328,3.00328,0,0,0,3-3Zm-9,8H19a1,1,0,0,1,0-2h6A1.00019,1.00019,0,0,1,25,29Zm7-2a1.001,1.001,0,0,1-1,1H30V25a3.00328,3.00328,0,0,0-3-3H20V21a1.0013,1.0013,0,0,1,1-1H31a1.001,1.001,0,0,1,1,1Z"
       id="path2213" />
  </g>
</svg>
